<svg id="close" viewBox="0 0 25 25" xmlns="http://www.w3.org/2000/svg">
  <circle cx="2.71739" cy="2.71739" r="2.71739"/>
  <circle cx="2.71739" cy="22.2826" r="2.71739"/>
  <circle cx="12.4996" cy="12.5" r="2.71739"/>
  <circle cx="22.2818" cy="2.71739" r="2.71739"/>
  <circle cx="22.2818" cy="22.2826" r="2.71739"/>
</svg>
