<svg width="110" height="110" viewBox="0 0 110 110" fill="none" xmlns="http://www.w3.org/2000/svg">
  <path d="M10.3623 73.4574C12.4948 73.4528 14.6272 73.4481 16.7597 73.4412C17.5657 75.1636 18.3694 76.8837 19.2077 78.6758H10.3623V73.4551V73.4574Z" fill="#373e40"/>
  <path d="M92.5683 73.4436C94.6432 73.4483 96.7181 73.4529 98.793 73.4599V78.6806H90.1157C90.9448 76.9117 91.7554 75.1776 92.5683 73.4459V73.4436Z" fill="#373e40"/>
  <path d="M16.7411 73.469C15.6172 70.2798 14.9425 67.0233 15.0208 63.6063C15.2603 53.0231 23.6244 43.444 34.0196 41.9679C41.9576 40.8406 48.7212 43.1999 54.2781 49.0366C54.3955 49.1621 54.5268 49.276 54.6811 49.4248C56.4221 47.4862 58.3887 45.8591 60.6386 44.576C74.1842 36.8541 91.4282 45.178 93.989 60.6659C94.6684 64.7709 94.2055 68.7457 92.8468 72.6438C92.7524 72.9158 92.6741 73.1924 92.5866 73.4667C88.1259 73.4783 83.6675 73.4899 79.2068 73.4992C78.1705 73.5015 77.1342 73.5085 76.0979 73.4992C75.0063 73.4876 73.7536 73.7898 72.8693 73.3481C71.985 72.9065 71.4622 71.721 70.7921 70.854C69.5946 69.3059 68.4063 67.7531 67.1443 66.1121C64.5605 70.9632 62.0411 75.6981 59.4227 80.6167C56.4013 73.6061 53.4513 66.7583 50.4277 59.7431C47.3072 65.4333 44.2789 70.9493 41.1908 76.5791C40.5391 75.7214 39.9081 74.952 39.3508 74.1315C39.0192 73.6433 38.6369 73.4876 38.0612 73.4899C31.24 73.5085 24.4189 73.5015 17.5977 73.5015C17.3122 73.5015 17.0243 73.4806 16.7387 73.469H16.7411Z" fill="#373e40"/>
  <path d="M19.4028 78.7222C19.8703 78.7222 20.1513 78.7222 20.4299 78.7222C25.4387 78.7222 30.4475 78.7338 35.4562 78.7083C36.0711 78.7059 36.4488 78.9012 36.8103 79.3963C38.2588 81.3814 39.7534 83.3339 41.2296 85.2981C41.4184 85.5468 41.6119 85.7932 41.8721 86.1302C44.548 81.2582 47.1687 76.4837 49.8723 71.5605C52.9075 78.6083 55.8759 85.5026 58.9295 92.5922C61.9763 86.8717 64.9401 81.3093 67.9407 75.6748C68.5809 76.5047 69.1958 77.2345 69.7301 78.0202C70.0962 78.5572 70.5107 78.7408 71.1602 78.7361C77.0325 78.7083 82.9049 78.7199 88.7772 78.7199H89.8987C89.6961 79.0871 89.5671 79.3521 89.4105 79.5985C86.4536 84.2823 82.7667 88.3362 78.7436 92.0948C71.5194 98.8427 63.4754 104.493 55.1689 109.779C54.9409 109.923 54.4827 109.965 54.2731 109.83C44.2233 103.443 34.4982 96.6182 26.3552 87.7992C24.0155 85.2655 22.0627 82.3646 19.9417 79.6264C19.769 79.4033 19.6492 79.1383 19.4051 78.7176L19.4028 78.7222Z" fill="#373e40"/>
</svg>
