<svg width="142" height="90" viewBox="0 0 142 90" fill="none" xmlns="http://www.w3.org/2000/svg">
  <circle cx="15.1263" cy="15.4276" r="15.1263" fill="#373e40"/>
  <path d="M15.2744 12.5519C17.7877 12.5519 19.6122 14.3391 19.6122 16.9827C19.6122 19.5332 17.6946 21.6928 14.7904 21.6928C11.8303 21.6928 10.0244 19.6263 10.0244 17.3551H12.2026C12.2398 18.6396 13.2638 19.7008 14.809 19.7008C16.2239 19.7008 17.434 18.6582 17.434 17.0572C17.434 15.3817 16.2797 14.4136 14.8276 14.4136C13.8037 14.4136 12.6866 14.8976 12.2957 15.9774H10.1547L11.3276 8.28857H18.6813V10.2061H13.059L12.5377 13.5013C13.2638 12.9056 14.1946 12.5519 15.2744 12.5519Z" fill="white"/>
  <g clip-path="url(#clip)">
    <path d="M52.647 8.37589C52.7342 10.0851 52.6545 11.7175 52.9235 13.2903C54.0046 19.6013 59.1212 24.0294 65.5356 24.1014C73.5991 24.1907 81.6676 24.2006 89.7311 24.1014C96.97 24.0096 102.445 18.3832 102.535 11.1667C102.545 10.2712 102.535 9.37563 102.535 8.28906C103.437 8.49745 104.254 8.61652 105.024 8.87452C109.682 10.4225 112.524 14.486 112.532 19.6162C112.544 29.7873 112.534 39.9559 112.534 50.1269C112.534 58.2514 112.551 66.3734 112.527 74.4978C112.509 80.1093 108.807 84.5126 103.312 85.495C102.582 85.6265 101.825 85.629 101.08 85.629C85.449 85.6364 69.8152 85.6389 54.184 85.6315C47.4507 85.624 42.7352 80.923 42.7352 74.2101C42.7302 56.041 42.7302 37.872 42.7352 19.7005C42.7352 13.8484 46.402 9.38804 51.9595 8.43295C52.1687 8.39573 52.3855 8.39573 52.647 8.37341V8.37589ZM77.6221 73.7189C79.7395 73.7189 81.8544 73.7189 83.9718 73.7189C87.1454 73.7189 90.3214 73.7363 93.495 73.709C95.3683 73.6941 96.6262 72.3669 96.544 70.5807C96.4668 68.8789 95.1391 67.7676 93.1438 67.7651C82.811 67.7601 72.4781 67.7651 62.1453 67.7651C61.8663 67.7651 61.5824 67.7701 61.3083 67.8122C59.6194 68.0727 58.5757 69.4173 58.7376 71.1116C58.8846 72.6547 60.155 73.7114 61.9361 73.7139C67.1648 73.7238 72.3935 73.7164 77.6221 73.7189ZM77.6346 36.0363C75.5172 36.0363 73.4023 36.0363 71.2849 36.0363C68.1114 36.0363 64.9353 36.0189 61.7617 36.0462C59.8835 36.0611 58.638 37.3833 58.7226 39.1819C58.8024 40.8762 60.1376 41.9901 62.1304 41.9901C72.4632 41.995 82.796 41.9926 93.1288 41.9901C93.4377 41.9901 93.7541 41.9752 94.058 41.9206C95.6224 41.6428 96.6188 40.39 96.544 38.8172C96.4668 37.1675 95.1839 36.0437 93.3206 36.0412C88.092 36.0313 82.8633 36.0388 77.6346 36.0363ZM77.535 57.8545C82.8259 57.8545 88.1169 57.8619 93.4103 57.8495C95.3957 57.8446 96.7209 56.4008 96.5291 54.5079C96.3747 52.9748 95.0718 51.9032 93.3231 51.9007C85.728 51.8957 78.1328 51.9007 70.5401 51.9007C67.6132 51.9007 64.6887 51.8908 61.7617 51.9056C60.3319 51.9131 59.176 52.7764 58.8123 54.0416C58.2518 55.9964 59.7016 57.8421 61.8489 57.8495C67.0776 57.8644 72.3063 57.8545 77.5374 57.8545H77.535Z" fill="#373e40"/>
    <path d="M77.652 0.306411C81.4808 0.306411 85.3095 0.298968 89.1382 0.306411C93.6644 0.316334 96.5366 3.17664 96.5565 7.6792C96.5615 8.82531 96.5739 9.9739 96.5515 11.12C96.4818 15.114 93.632 18.1058 89.6165 18.143C81.6178 18.2174 73.6165 18.2199 65.6178 18.1405C61.6023 18.1008 58.775 15.0942 58.7177 11.0878C58.6977 9.69357 58.6853 8.29691 58.7351 6.90521C58.8671 3.33541 61.7393 0.413083 65.3239 0.343622C69.4316 0.261757 73.5418 0.323776 77.6495 0.323776C77.6495 0.318814 77.6495 0.311372 77.6495 0.306411H77.652Z" fill="#373e40"/>
  </g>
  <defs>
    <clipPath id="clip">
      <rect width="69.8138" height="85.3279" fill="white" transform="translate(42.7305 0.301758)"/>
    </clipPath>
  </defs>
</svg>
