<svg width="142" height="90" viewBox="0 0 142 90" fill="none" xmlns="http://www.w3.org/2000/svg">
  <circle cx="15.1263" cy="15.2396" r="15.1263" fill="#373e40"/>
  <path d="M16.4452 19.4011H19.3495V21.3187H11.3628V19.4011H14.267V10.6325L11.5117 11.3213V9.34793L16.4452 8.10059V19.4011Z" fill="white"/>
  <g clip-path="url(#clip)">
    <path d="M107.703 40.7571C100.896 34.9353 92.1386 36.4287 87.2978 41.6665C82.7548 46.5813 81.5854 56.6056 89.6413 62.5889C86.1044 64.0776 83.1365 66.2643 80.7834 69.2298C78.4278 72.1977 76.9223 75.5431 76.3148 79.3895C76.0266 79.3895 75.7385 79.3895 75.448 79.3895C69.3658 79.3895 63.2836 79.4014 57.199 79.3871C49.9715 79.3705 44.1822 74.6337 42.84 67.6248C42.6623 66.7012 42.607 65.7419 42.607 64.797C42.595 48.0913 42.5902 31.3833 42.5998 14.6753C42.6046 6.31774 48.8717 0.123161 57.3071 0.118413C69.2625 0.113664 81.218 0.11129 93.1735 0.120787C100.521 0.125536 106.339 4.981 107.569 12.1348C107.703 12.9183 107.737 13.728 107.737 14.5257C107.749 22.9973 107.744 31.4712 107.744 39.9427C107.744 40.1706 107.722 40.3986 107.703 40.7595V40.7571ZM75.1142 19.8917C79.7269 19.8917 84.3395 19.8917 88.9522 19.8917C89.4925 19.8917 90.0327 19.9083 90.5682 19.8774C91.7928 19.8086 92.7677 19.0179 93.1182 17.845C93.4496 16.7291 93.1254 15.4659 92.1025 14.87C91.423 14.4735 90.5418 14.2337 89.7518 14.2313C80.0486 14.1886 70.3431 14.2028 60.6375 14.2099C60.1909 14.2099 59.7371 14.2384 59.3024 14.3287C58.3924 14.5186 57.7513 15.0789 57.3695 15.9052C56.4883 17.8213 57.8833 19.875 60.1092 19.8845C65.1109 19.9059 70.1125 19.8917 75.1142 19.8917ZM75.1142 35.035C79.967 35.035 84.8174 35.035 89.6701 35.035C90.0591 35.035 90.4529 35.035 90.8347 34.9828C92.5251 34.7406 93.6081 33.0311 93.1134 31.4118C92.6956 30.0442 91.6127 29.3533 89.8358 29.3533C80.0726 29.3509 70.307 29.3509 60.5438 29.3533C60.1861 29.3533 59.8235 29.3675 59.4705 29.4269C58.1451 29.6429 57.1702 30.7518 57.1198 32.0719C57.0525 33.8051 58.3396 35.0303 60.2869 35.035C65.2285 35.0469 70.1702 35.0398 75.1118 35.0398L75.1142 35.035ZM66.8325 50.1285C66.8325 50.1285 66.8325 50.1285 66.8325 50.1309C69.1689 50.1309 71.5076 50.1712 73.8416 50.1166C75.4864 50.0786 76.7014 48.7918 76.6774 47.2674C76.6558 45.7693 75.4552 44.4919 73.8656 44.4776C69.2217 44.4349 64.5778 44.4491 59.9339 44.4705C58.7958 44.4753 57.929 45.0261 57.4127 46.0471C56.4762 47.9014 57.7489 50.0406 59.9099 50.1119C62.2151 50.1878 64.5226 50.1285 66.8301 50.1285H66.8325Z" fill="#373e40"/>
    <path d="M97.9496 85.4389C93.1881 85.4389 88.4265 85.4413 83.665 85.4389C81.4751 85.4389 80.2913 84.1995 80.3922 82.0318C80.8196 72.7482 88.0327 65.63 97.4093 65.2335C106.495 64.8513 114.64 71.9291 115.409 80.8802C115.449 81.3527 115.505 81.8252 115.514 82.2977C115.548 84.1948 114.333 85.4342 112.417 85.4389C107.595 85.4484 102.774 85.4413 97.952 85.4413L97.9496 85.4389Z" fill="#373e40"/>
    <path d="M88.0274 51.0733C88.0178 45.6338 92.4863 41.2104 97.9586 41.2389C103.426 41.2674 107.835 45.6361 107.842 51.0353C107.849 56.4677 103.376 60.8982 97.9058 60.8744C92.4527 60.8507 88.037 56.4701 88.0274 51.0709V51.0733Z" fill="#373e40"/>
  </g>
  <defs>
    <clipPath id="clip">
      <rect width="72.9166" height="85.3279" fill="white" transform="translate(42.5947 0.112793)"/>
    </clipPath>
  </defs>
</svg>
