<svg width="142" height="90" viewBox="0 0 142 90" fill="none" xmlns="http://www.w3.org/2000/svg">
  <circle cx="15.1263" cy="15.2396" r="15.1263" fill="#373e40"/>
  <path d="M18.3834 14.3369C19.4632 14.8396 20.3009 15.8449 20.3009 17.5204C20.3009 19.5125 18.6813 21.5045 15.6839 21.5045C12.6866 21.5045 10.769 19.6055 10.769 17.055H12.8914C12.8914 18.7305 14.176 19.5125 15.5722 19.5125C17.1919 19.5125 18.1228 18.6188 18.1228 17.4087C18.1228 15.9752 16.9127 15.4539 15.4047 15.4539H14.3621V13.5922H15.4605C16.9685 13.5178 17.6201 12.6242 17.6201 11.7305C17.6201 10.6321 16.7637 9.90608 15.4605 9.90608C14.0829 9.90608 13.0403 10.8183 13.0403 12.2518H10.9366C10.9366 9.86885 12.6307 7.91406 15.5536 7.91406C18.0855 7.91406 19.7983 9.44066 19.7983 11.5444C19.7983 12.7731 19.2398 13.7226 18.3834 14.3369Z" fill="white"/>
  <g clip-path="url(#clip)">
    <path d="M106.887 85.4219H89.8232C89.8232 85.1014 89.8232 84.7904 89.8232 84.4793C89.8232 82.0504 89.8303 79.6215 89.8232 77.1926C89.816 75.2148 88.6554 74.0704 86.6615 74.0632C84.9431 74.0585 83.227 74.0537 81.5085 74.0632C79.6452 74.0751 78.4608 75.2552 78.4537 77.1214C78.4442 79.8447 78.4513 82.5704 78.4513 85.365H61.3853V84.4485C61.3853 59.3307 61.3853 34.2105 61.3853 9.09264C61.3876 3.77181 65.0477 0.117752 70.3764 0.115378C79.5574 0.110629 88.7384 0.110629 97.9218 0.115378C103.246 0.117752 106.887 3.77181 106.889 9.11401C106.892 34.2318 106.889 59.352 106.889 84.4699V85.4196L106.887 85.4219ZM69.9183 25.6606C69.9064 33.5267 76.2652 39.9231 84.1076 39.9326C91.9618 39.9421 98.3491 33.5718 98.3538 25.7176C98.3609 17.9085 92.0069 11.5168 84.2096 11.4907C76.3531 11.4646 69.9302 17.8301 69.9183 25.6582V25.6606ZM72.7951 48.4682C71.2404 48.4516 69.9491 49.7005 69.9207 51.2509C69.8898 52.8322 71.1905 54.1547 72.7713 54.1499C74.3189 54.1452 75.5959 52.8702 75.603 51.3221C75.6101 49.7764 74.3403 48.4848 72.7974 48.4682H72.7951ZM86.9772 51.334C86.9915 49.7883 85.7263 48.4919 84.1835 48.4682C82.6288 48.4445 81.3328 49.6886 81.2972 51.239C81.2616 52.8227 82.5552 54.1499 84.1337 54.1523C85.6813 54.1523 86.9654 52.8844 86.9772 51.3364V51.334ZM98.3514 51.2699C98.3301 49.7242 97.0388 48.4587 95.4913 48.4682C93.9389 48.4777 92.6715 49.7503 92.6691 51.3031C92.6667 52.8844 93.9912 54.1832 95.572 54.1499C97.1172 54.1167 98.3704 52.8179 98.3514 51.2699ZM75.6006 62.7046C75.6101 61.1565 74.3426 59.8649 72.7974 59.8459C71.2427 59.8269 69.9515 61.0734 69.9183 62.6238C69.8851 64.2075 71.1834 65.53 72.7642 65.5276C74.3118 65.5252 75.5911 64.2526 75.6006 62.7046ZM84.1764 65.5276C85.7216 65.5062 86.9867 64.217 86.9772 62.6666C86.9677 61.1209 85.686 59.8459 84.1384 59.8435C82.5505 59.8435 81.264 61.1565 81.2949 62.7473C81.3257 64.2882 82.6312 65.549 84.1764 65.5276ZM95.4936 65.5276C97.0412 65.5371 98.3301 64.2716 98.3514 62.7259C98.3728 61.1802 97.1124 59.8768 95.572 59.8459C93.9817 59.815 92.6691 61.1019 92.6715 62.6903C92.6715 64.236 93.9508 65.5181 95.496 65.5276H95.4936Z" fill="#373e40"/>
    <path d="M55.6419 85.4313C51.7635 85.4313 47.9468 85.4622 44.1324 85.4147C42.7225 85.3981 41.5927 84.1824 41.4882 82.7721C41.4764 82.5964 41.4811 82.4159 41.4811 82.2402C41.4811 65.3613 41.474 48.4823 41.4859 31.6033C41.4882 27.0636 44.543 23.4642 49.0315 22.9632C51.1915 22.721 53.3989 22.9205 55.6419 22.9205V85.4313Z" fill="#373e40"/>
    <path d="M112.612 85.4388V22.9351C112.835 22.9138 113.06 22.8686 113.284 22.8734C115.441 22.9185 117.625 22.7784 119.752 23.0633C123.673 23.5881 126.663 27.0973 126.777 31.0553C126.834 33.0972 126.796 35.1415 126.796 37.1857C126.796 52.1106 126.796 67.0356 126.796 81.9605C126.796 84.4274 125.769 85.4436 123.276 85.4436C119.754 85.4436 116.234 85.4436 112.614 85.4436L112.612 85.4388Z" fill="#373e40"/>
    <path d="M86.9802 22.8682C87.951 22.8682 88.8316 22.8564 89.7122 22.8682C91.3879 22.8943 92.6388 24.0862 92.6625 25.6652C92.6863 27.2821 91.4259 28.5238 89.7122 28.5523C88.8316 28.5666 87.951 28.5547 86.9778 28.5547C86.9778 29.3928 86.9778 30.1526 86.9778 30.9124C86.9731 32.9448 85.8456 34.253 84.1105 34.2388C82.4134 34.2245 81.2954 32.9234 81.2907 30.9527C81.2907 30.1882 81.2907 29.4237 81.2907 28.5523C80.3508 28.5523 79.4749 28.5618 78.5967 28.5523C76.8687 28.531 75.6036 27.3201 75.606 25.7055C75.606 24.0839 76.864 22.8872 78.6014 22.8682C79.4559 22.8587 80.3104 22.8682 81.2907 22.8682C81.2907 22.0657 81.2907 21.3107 81.2907 20.5533C81.2907 18.4924 82.3778 17.196 84.1081 17.1818C85.8717 17.1675 86.9754 18.4829 86.9778 20.596C86.9778 21.3059 86.9778 22.0158 86.9778 22.8682H86.9802Z" fill="#373e40"/>
  </g>
  <defs>
    <clipPath id="clip">
      <rect width="85.3279" height="85.3279" fill="white" transform="translate(41.4785 0.112793)"/>
    </clipPath>
  </defs>
</svg>
