<svg width="142" height="90" viewBox="0 0 142 90" fill="none" xmlns="http://www.w3.org/2000/svg">
  <circle cx="15.1263" cy="15.4276" r="15.1263" fill="#373e40"/>
  <path d="M18.5327 17.0944H20.4875V18.8444H18.5327V21.5066H16.4103V18.8444H10.2295V17.3364L16.522 8.28857H18.5327V17.0944ZM16.5965 11.0067L12.5194 17.0944H16.429V13.2965C16.429 12.3098 16.4848 11.5465 16.5965 11.0067Z" fill="white"/>
  <g clip-path="url(#clip)">
    <path d="M141.298 85.629C140.878 85.6082 140.454 85.5668 140.034 85.5668C127.223 85.5642 114.415 85.5642 101.604 85.5642C101.186 85.5642 100.768 85.5642 100.277 85.5642V69.0006H106.038V74.7102H111.907V68.972H117.731V63.1483H111.961V57.3532H106.096V63.0628H100.243C100.285 58.5459 98.3146 55.2788 93.9956 53.5104V46.5044H95.255C110.182 46.5044 125.112 46.5044 140.039 46.5018C140.46 46.5018 140.878 46.4499 141.298 46.4214V85.6264V85.629Z" fill="#373e40"/>
    <path d="M41.2314 40.375H66.0037V85.51H60.2268V68.3967H47.0476V85.5074H41.2314V40.375Z" fill="#373e40"/>
    <path d="M61.5879 18.8952C55.3798 16.6367 52.7487 12.6981 53.8565 7.57966C54.7972 3.23911 58.9542 0.0498113 63.3255 0.316882C68.1069 0.609883 71.94 4.18293 72.264 8.65054C72.6272 13.6627 69.6276 17.6195 64.4307 18.7733C65.7476 18.8641 66.8868 18.8693 68.0024 19.0326C73.9728 19.9116 78.459 24.9756 78.5243 30.9678C78.5766 35.7544 78.5374 40.5409 78.54 45.3274C78.54 45.6775 78.54 46.0249 78.54 46.4865H88.0298V52.9921H71.9948V37.2297C71.9948 35.7518 70.7877 34.5538 69.2984 34.5538H47.5021C47.0997 30.2781 47.5335 26.3602 50.4886 23.0905C53.3941 19.8753 57.0756 18.597 61.5879 18.8952Z" fill="#373e40"/>
    <path d="M135.001 40.6861C132.511 40.6861 130.134 40.6861 127.758 40.6861C124.239 40.6861 120.719 40.6731 117.203 40.699C116.547 40.7042 116.319 40.5072 116.244 39.8408C115.888 36.7967 115.496 33.7604 115.099 30.6541C114.932 29.3524 113.816 28.3749 112.492 28.3749H104.269C105.071 25.1674 106.79 22.7897 109.364 21.011C111.914 19.2478 114.809 18.6981 117.874 18.8277C111.551 17.2253 109.636 12.1069 110.26 8.13192C110.966 3.5969 114.997 0.233873 119.562 0.301289C124.273 0.371298 128.276 3.92101 128.767 8.469C129.266 13.0922 126.46 17.5909 121.015 18.7707C122.3 18.864 123.481 18.877 124.636 19.0455C130.4 19.8908 134.944 25.0144 135.038 30.7915C135.087 33.8615 135.051 36.9341 135.051 40.0067C135.051 40.1934 135.022 40.3801 134.999 40.6809L135.001 40.6861Z" fill="#373e40"/>
    <path d="M84.759 85.502V68.368H72.0293V58.8701C72.4082 58.8701 72.7269 58.8701 73.0483 58.8701C78.8514 58.8701 84.6519 58.8701 90.455 58.8701C93.0626 58.8701 94.3351 60.1458 94.3351 62.7595C94.3351 70.0041 94.3351 77.2513 94.3351 84.496V85.4994H84.759V85.502Z" fill="#373e40"/>
    <path d="M96.3204 34.214H108.42C109.11 34.214 109.69 34.7222 109.777 35.4016C109.931 36.628 110.085 37.8519 110.242 39.0939C110.344 39.9029 109.709 40.6185 108.886 40.6185H96.7881C96.0983 40.6185 95.5183 40.1103 95.4321 39.431C95.2753 38.1968 95.1211 36.9755 94.9644 35.7387C94.8625 34.9297 95.4974 34.2114 96.3204 34.2114V34.214Z" fill="#373e40"/>
  </g>
  <defs>
    <clipPath id="clip">
      <rect width="100.066" height="85.3279" fill="white" transform="translate(41.2314 0.301758)"/>
    </clipPath>
  </defs>
</svg>
