<svg width="110" height="110" viewBox="0 0 110 110" fill="none" xmlns="http://www.w3.org/2000/svg">
  <path d="M85.6249 41.5937C85.2899 42.988 84.8982 44.3641 84.5297 45.7479C82.9965 51.4946 81.4658 57.2412 79.9325 62.9852C79.461 64.7496 78.7961 65.276 76.9691 65.2786C70.3954 65.2838 63.8218 65.2838 57.2481 65.2786C55.2923 65.276 54.4213 64.3977 54.3955 62.331C52.9267 62.4379 51.4604 62.5447 49.9942 62.6568C48.7341 62.7532 47.4714 62.8445 46.2139 62.9591C45.0723 63.066 44.1034 62.8262 43.2659 62.2711L42.8433 68.578H42.8381C42.8098 68.9976 42.7789 69.4042 42.7222 69.8108C42.6165 70.577 42.8021 70.9523 43.637 71.1529C46.7834 71.9113 49.9091 72.7557 53.0375 73.5897C55.5809 74.2647 56.8384 75.732 57.1734 78.3512C58.2557 86.8578 59.3354 95.3643 60.4254 103.868C60.8094 106.865 58.954 109.448 56.122 109.823C53.2978 110.199 50.8574 108.275 50.4735 105.302C49.5329 98.0044 48.6258 90.7019 47.6801 83.4046C47.6337 83.0397 47.3374 82.7087 47.157 82.3647C47.0591 82.3986 46.9612 82.4351 46.8632 82.4716C46.7627 82.727 46.6751 82.9876 46.5592 83.2352C45.8969 84.6608 44.7657 85.2993 43.2272 85.2941C40.0164 85.2836 36.8082 85.2915 33.5974 85.2915H32.4764V86.3834C32.4764 90.3474 32.4919 94.3114 32.461 98.2754C32.4558 98.9296 32.6414 99.3596 33.1542 99.7714C35.5661 101.718 37.9472 103.704 40.3308 105.682C41.1554 106.368 41.4234 107.272 41.1245 108.286C40.8514 109.203 40.1659 109.855 39.2356 109.813C38.527 109.782 37.7307 109.474 37.1535 109.044C35.6151 107.9 34.172 106.626 32.4661 105.218C32.4661 106.138 32.4945 106.855 32.4584 107.569C32.412 108.562 31.8992 109.292 31.0231 109.696C30.1959 110.074 29.3223 109.972 28.7116 109.302C28.3045 108.857 28.0158 108.21 27.8921 107.608C27.7556 106.923 27.8612 106.188 27.8612 105.299C27.5288 105.526 27.3046 105.654 27.1062 105.815C25.7662 106.915 24.434 108.028 23.0888 109.125C21.8545 110.134 20.4011 110.084 19.5533 109.018C18.7004 107.942 18.94 106.537 20.1872 105.497C22.5451 103.535 24.9261 101.598 27.2685 99.6176C27.5546 99.3752 27.8252 98.9165 27.8277 98.5569C27.8638 94.3114 27.8509 90.066 27.8483 85.8205C27.8483 85.698 27.8226 85.5755 27.7891 85.2915H26.7274C23.2383 85.2915 19.7517 85.2967 16.2652 85.2915C13.7991 85.2862 12.6292 84.1526 12.3277 81.6741C11.4464 74.4628 10.5239 67.2567 9.61939 60.048C8.98032 54.9425 8.34641 49.837 7.70218 44.7341C7.67384 44.497 7.71249 41.8595 7.78722 41.6979C8.49587 40.1942 9.82039 39.454 11.3923 39.6886C12.8766 39.9101 13.9795 41.0386 14.1856 42.6336C14.7551 47.0536 15.3014 51.4789 15.8555 55.9042C16.693 62.5552 17.5279 69.2061 18.3628 75.8571C18.4684 76.6911 18.5715 77.5277 18.6875 78.4372H22.8337C21.0866 76.0291 21.6715 73.2535 21.6355 70.6004C21.5143 61.8307 21.4808 53.0583 21.4216 44.2885C21.401 41.3643 22.558 39.11 25.2843 37.9607C26.2146 37.5698 27.333 37.4447 28.3483 37.4942C31.8606 37.6662 35.3729 37.9164 38.8723 38.2421C41.2972 38.4689 43.1937 39.9987 44.0287 42.1227H44.0312C44.0312 42.1227 44.039 42.1436 44.0415 42.154C44.0519 42.1775 44.0622 42.2009 44.0673 42.2244C44.1807 42.5397 44.2941 42.975 44.4075 43.491C45.0697 46.4803 45.7913 52.2113 46.9302 53.7385C47.2962 54.2284 47.6698 54.377 48.2496 54.3275C52.4912 53.96 56.7353 53.6316 60.9769 53.2641C62.3349 53.1469 63.6259 53.2016 64.7624 54.0903C66.5507 55.4898 66.9038 58.0569 65.5586 59.9464C65.4324 60.121 65.2932 60.2852 65.0948 60.5354C65.4143 60.5693 65.6462 60.6162 65.8807 60.6162C68.906 60.6214 71.9287 60.5979 74.954 60.637C75.6033 60.6448 75.8585 60.4285 76.0208 59.8083C77.6777 53.4831 79.3579 47.1657 81.0483 40.8483C81.1823 40.3479 81.373 39.8215 81.6797 39.4175C82.3368 38.5653 83.535 38.3464 84.4421 38.8103C85.4059 39.3029 85.9083 40.4183 85.6249 41.5937Z" fill="#373e40"/>
  <path d="M44.407 43.4907C44.2937 42.9747 44.1803 42.5395 44.0669 42.2241C44.2215 42.6255 44.3349 43.0503 44.407 43.4907Z" fill="#373e40"/>
  <path d="M95.6049 103.12V75.1089C95.2313 75.1089 94.8757 75.1089 94.5226 75.1089C83.4755 75.1089 72.4258 75.1089 61.3786 75.1089C59.263 75.1089 57.8947 74.0065 57.6318 72.1275C57.3767 70.2823 58.7141 68.557 60.5514 68.3772C60.9199 68.3407 61.291 68.3433 61.6621 68.3433C73.8534 68.3433 86.0421 68.3433 98.2334 68.3433C101.143 68.3433 102.331 69.5474 102.331 72.4871C102.331 83.5999 102.331 94.71 102.331 105.823C102.331 108.614 101.068 109.912 98.339 109.912C92.322 109.917 86.3023 109.922 80.2853 109.909C77.8707 109.904 76.3762 108.366 76.5694 106.154C76.7008 104.65 77.8579 103.402 79.3396 103.201C79.7957 103.138 80.2621 103.131 80.7234 103.131C85.2896 103.125 89.8585 103.128 94.4247 103.128C94.7906 103.128 95.1566 103.128 95.6075 103.128L95.6049 103.12Z" fill="#373e40"/>
  <path d="M44.8064 23.8194C44.8347 28.8936 40.6988 33.1417 35.6867 33.186C30.5948 33.2303 26.4099 29.0761 26.3661 23.9367C26.3197 18.8103 30.4428 14.5649 35.5218 14.5023C40.539 14.4424 44.7754 18.6931 44.8064 23.8168V23.8194Z" fill="#373e40"/>
</svg>
